EPsy 8252 - woods.csv
…
envgroups: The number of environmental groups registered to lobby in the state in 1990 standardized by gross state product to account for the fact that the density of organized interests is greater in states with larger economies.

manufgroups: The number of manufacturing groups registered to lobby in the state in 1990 standardized by gross state product to account for the fact that the density of organized interests is greater in states with larger economies.

Preview

# Import data
woods = readr::read_csv(file = "https://raw.githubusercontent.com/zief0002/benevolent-anteater/main/data/woods.csv")

# View data
woods |>
    print(width = Inf)

# A tibble: 50 × 11
   state envprogstr corrupt legprof wealth toxicwaste publicenv demcontrol
   <chr>      <dbl>   <dbl>   <dbl>  <dbl>      <dbl>     <dbl>      <dbl>
 1 AK             8   0.586   0.311   44.3       1.31      2.42      0.625
 2 AL             6   0.630   0.158   18.9       4.70      2.37      0.800
 3 AR             5   0.132   0.105   18.4       3.71      2.42      0.900
 4 AZ            13   0.318   0.25    19.3       4.19      2.52      0.300
 5 CA            34   0.498   0.625   25.5       4.69      2.7       0.600
 6 CO            17   0.212   0.300   23.8       2.75      2.5       0.5  
 7 CT            29   0.213   0.233   30.2       3.63      2.59      0.900
 8 DE            15   0.301   0.192   34.3       2.15      2.60      0.300
 9 FL            24   0.604   0.255   19.9       4.12      2.61      0.800
10 GA            12   0.546   0.133   22.7       4.46      2.49      1    
   interpartycomp envgroups manufgroups
            <dbl>     <dbl>       <dbl>
 1          53.5     0.346        0.654
 2          27.3     0.064        0.538
 3           9.26    0.0455       0.636
 4          33.9     0.148        0.783
 5          47.3     0.014        0.259
 6          40.2     0.242        0.521
 7          52.8     0.192        0.586
 8          39.7     0.127        1.05 
 9          31.1     0.246        0.875
10          16.2     0.143        0.651
# ℹ 40 more rows
…
